io\swagger\Swagger2SpringBoot.class
io\swagger\api\ApiOriginFilter.class
io\swagger\api\UsersApi.class
io\swagger\Swagger2SpringBoot$ExitException.class
io\swagger\configuration\HomeController.class
io\swagger\api\UsersApiController.class
io\swagger\model\db\UserDB.class
io\swagger\model\User.class
io\swagger\model\UserResponse.class
io\swagger\model\UpdateRequest.class
io\swagger\model\CreateRequest.class
io\swagger\model\Error.class
io\swagger\api\ApiResponseMessage.class
io\swagger\repo\UserRepo.class
io\swagger\api\NotFoundException.class
io\swagger\model\ResponseHeader.class
io\swagger\RFC3339DateFormat.class
io\swagger\model\RequestHeader.class
io\swagger\api\ApiException.class
io\swagger\configuration\SwaggerDocumentationConfig.class
io\swagger\model\User$CitizenshipEnum.class
io\swagger\model\UserListResponse.class
io\swagger\model\db\UserDB$UserDBBuilder.class
